<?xml version="1.0" standalone="no"?>
<!DOCTYPE svg PUBLIC "-//W3C//DTD SVG 20010904//EN"
 "http://www.w3.org/TR/2001/REC-SVG-20010904/DTD/svg10.dtd">
<svg version="1.0" xmlns="http://www.w3.org/2000/svg"
 width="1024.000000pt" height="1024.000000pt" viewBox="0 0 1024.000000 1024.000000"
 preserveAspectRatio="xMidYMid meet">
<metadata>
Created by potrace 1.14, written by Peter Selinger 2001-2017
</metadata>
<g transform="translate(0.000000,1024.000000) scale(0.100000,-0.100000)"
fill="#000000" stroke="none">
<path d="M4978 8658 c-87 -8 -125 -26 -435 -206 -142 -82 -330 -189 -418 -238
-191 -106 -267 -173 -318 -281 l-32 -68 -3 -529 c-3 -506 -2 -533 17 -595 11
-36 34 -88 51 -114 62 -99 90 -119 560 -404 69 -42 190 -117 270 -166 200
-125 235 -139 345 -145 137 -6 180 12 505 214 151 94 352 217 446 272 130 77
184 115 222 157 59 65 108 158 122 234 6 31 10 251 10 525 0 513 -4 550 -57
649 -40 73 -119 146 -219 201 -49 27 -197 112 -329 189 -484 283 -508 295
-610 306 -33 3 -90 3 -127 -1z m206 -227 c56 -28 75 -50 83 -95 5 -33 2 -40
-34 -75 -77 -72 -223 -88 -329 -35 -75 37 -105 84 -84 133 27 67 118 103 242
97 52 -3 92 -11 122 -25z m-521 -287 c51 -17 107 -72 107 -105 0 -85 -122
-148 -265 -137 -104 9 -195 72 -195 136 0 26 44 78 81 97 71 37 180 41 272 9z
m1000 6 c49 -14 104 -63 112 -100 31 -139 -293 -206 -419 -86 -125 118 88 247
307 186z m-1196 -473 c194 -113 372 -214 395 -225 109 -48 211 -53 319 -14 31
11 130 62 220 115 493 285 571 329 604 334 91 15 141 -55 119 -165 -6 -28 -10
-30 -58 -34 -44 -4 -93 -29 -371 -188 -176 -101 -374 -212 -440 -247 -90 -47
-126 -73 -145 -100 l-25 -37 -2 -410 -3 -410 -25 -26 c-39 -39 -104 -36 -147
8 l-33 32 3 398 c3 271 0 411 -7 439 -18 67 -79 118 -271 227 -96 55 -246 142
-334 194 -187 111 -239 136 -271 128 -28 -7 -35 7 -35 78 0 83 37 119 115 112
31 -2 122 -51 392 -209z m711 168 c116 -47 121 -149 9 -207 -52 -27 -177 -36
-242 -18 -53 15 -120 70 -129 105 -8 31 15 79 50 102 68 44 223 53 312 18z
m-1040 -397 c67 -41 93 -143 48 -195 -65 -75 -206 10 -206 124 0 24 5 53 11
64 22 42 84 45 147 7z m1694 -375 c74 -67 59 -184 -37 -279 -82 -83 -162 -95
-221 -33 -26 27 -29 37 -28 92 0 91 49 178 119 214 70 37 131 39 167 6z
m-1665 -205 c59 -60 65 -151 11 -191 -97 -72 -258 124 -172 210 22 22 32 25
76 21 40 -4 57 -12 85 -40z"/>
<path d="M2805 5821 c-168 -78 -185 -309 -30 -406 42 -26 58 -30 120 -30 62 0
78 4 120 30 192 120 106 425 -120 425 -28 0 -68 -9 -90 -19z"/>
<path d="M7084 5816 c-115 -54 -164 -186 -110 -301 51 -111 183 -166 290 -121
125 52 179 190 122 312 -55 118 -184 165 -302 110z"/>
<path d="M4957 5693 c-4 -3 -7 -119 -7 -256 0 -223 2 -249 16 -243 9 3 47 6
85 6 l69 0 0 250 0 250 -78 0 c-43 0 -82 -3 -85 -7z"/>
<path d="M3271 5484 c-23 -29 -27 -74 -11 -105 13 -24 81 -59 115 -59 31 0 75
41 75 70 0 36 -27 74 -68 98 -53 29 -86 28 -111 -4z"/>
<path d="M6710 5499 c-76 -30 -105 -112 -57 -157 29 -27 66 -28 117 -2 68 34
80 92 31 141 -31 30 -50 34 -91 18z"/>
<path d="M3582 5288 c-47 -52 -36 -108 31 -148 94 -57 191 31 126 114 -45 57
-120 73 -157 34z"/>
<path d="M6380 5291 c-19 -10 -43 -30 -54 -44 -28 -38 -13 -94 32 -120 32 -19
35 -19 77 -2 85 32 110 102 56 156 -34 34 -63 36 -111 10z"/>
<path d="M3921 5116 c-51 -29 -65 -89 -28 -131 75 -87 210 -41 177 60 -19 57
-103 97 -149 71z"/>
<path d="M6054 5100 c-66 -33 -84 -101 -39 -145 30 -31 68 -32 120 -2 54 31
70 65 51 111 -24 58 -64 69 -132 36z"/>
<path d="M4959 4960 c-167 -26 -318 -132 -386 -270 -41 -83 -53 -141 -54 -248
0 -154 57 -282 176 -390 103 -94 207 -132 360 -132 202 1 370 110 465 304 49
99 64 186 50 283 -18 127 -55 205 -140 296 -117 125 -295 184 -471 157z m169
-326 c145 -60 176 -248 59 -351 -88 -77 -226 -68 -304 20 -118 134 -24 347
154 347 29 0 70 -7 91 -16z"/>
<path d="M4217 4920 c-52 -41 -43 -103 24 -147 52 -34 99 -36 134 -3 33 31 32
70 -1 110 -51 60 -112 75 -157 40z"/>
<path d="M5745 4913 c-85 -44 -110 -109 -60 -158 29 -30 63 -32 115 -5 73 37
90 95 44 149 -29 34 -54 38 -99 14z"/>
<path d="M2373 4260 c-70 -15 -122 -41 -537 -278 -465 -265 -501 -292 -569
-431 l-42 -86 -3 -494 c-2 -319 1 -512 8 -544 16 -75 60 -156 115 -212 28 -28
104 -84 170 -125 66 -40 192 -118 280 -173 331 -207 491 -301 545 -320 45 -16
73 -18 151 -15 124 6 139 13 561 266 183 110 371 221 417 248 151 88 234 193
261 329 8 42 10 207 8 545 -3 480 -3 486 -26 542 -31 76 -100 169 -154 206
-24 16 -99 61 -168 99 -69 39 -255 145 -413 236 -159 91 -314 176 -345 188
-64 24 -192 33 -259 19z m231 -219 c79 -35 109 -94 77 -148 -46 -74 -224 -108
-329 -63 -158 68 -131 187 53 234 37 9 158 -4 199 -23z m-505 -278 c63 -20
111 -70 111 -115 0 -40 -61 -102 -115 -117 -22 -6 -71 -11 -110 -11 -38 0 -88
5 -110 11 -54 15 -115 77 -115 117 0 42 49 96 103 116 57 20 173 20 236 -1z
m978 2 c63 -19 113 -71 113 -117 0 -43 -62 -101 -123 -117 -66 -16 -181 -14
-225 5 -60 25 -102 72 -102 114 0 44 44 92 105 114 53 19 169 20 232 1z
m-1166 -475 c189 -112 368 -214 398 -228 74 -34 171 -40 257 -17 40 11 120 49
207 99 78 45 232 134 343 198 110 64 219 125 242 137 58 29 113 28 151 -5 27
-23 31 -32 31 -77 0 -86 -4 -93 -55 -89 -37 3 -56 -3 -112 -35 -353 -204 -606
-349 -693 -397 -58 -32 -116 -68 -129 -80 -49 -44 -51 -58 -51 -466 0 -413 -1
-424 -55 -448 -44 -20 -82 -14 -117 17 l-33 29 -5 424 -5 423 -25 45 c-30 54
-58 72 -465 313 -251 148 -296 171 -333 172 -48 0 -53 8 -55 81 -1 82 35 116
114 110 39 -2 97 -33 390 -206z m649 189 c89 -20 151 -88 131 -142 -26 -67
-114 -107 -235 -107 -84 0 -139 22 -179 69 -57 69 -13 146 103 182 37 11 128
10 180 -2z m-989 -412 c46 -30 82 -101 75 -147 -16 -105 -146 -104 -205 1 -28
49 -28 118 -1 147 28 30 86 29 131 -1z m1639 -370 c77 -39 93 -151 37 -258
-40 -78 -94 -120 -165 -127 -66 -6 -104 15 -132 73 -17 36 -21 56 -16 88 16
96 68 171 148 211 57 29 90 32 128 13z m-1640 -186 c67 -35 98 -127 65 -191
-21 -41 -57 -48 -111 -22 -88 43 -132 167 -75 213 29 24 76 24 121 0z"/>
<path d="M7504 4256 c-77 -18 -80 -19 -484 -249 -184 -104 -369 -208 -410
-231 -134 -74 -218 -179 -255 -322 -22 -85 -22 -949 0 -1042 38 -160 90 -212
399 -395 687 -409 681 -405 748 -423 98 -26 221 -14 308 31 19 10 193 113 385
229 193 117 377 227 409 246 80 47 177 143 210 209 51 100 56 148 56 616 0
242 -5 458 -10 495 -6 36 -26 98 -46 138 -58 119 -104 156 -400 325 -142 81
-333 190 -424 242 -91 53 -189 104 -219 116 -70 26 -189 33 -267 15z m234
-211 c116 -47 121 -148 9 -208 -57 -30 -213 -32 -267 -3 -81 43 -108 87 -86
141 34 81 220 119 344 70z m-476 -293 c55 -27 82 -64 82 -111 0 -27 -8 -41
-37 -66 -47 -41 -103 -57 -196 -56 -60 1 -86 6 -128 26 -137 68 -121 169 37
229 8 3 56 4 105 3 71 -2 100 -7 137 -25z m983 -2 c36 -19 55 -36 69 -65 19
-38 19 -39 0 -74 -28 -53 -114 -93 -202 -95 -241 -3 -330 174 -124 250 61 23
197 14 257 -16z m-1522 -266 c18 -9 183 -105 367 -213 184 -107 364 -206 400
-218 84 -29 165 -29 250 0 36 12 191 96 345 187 425 248 446 260 483 260 73 0
101 -33 102 -121 l0 -66 -48 -5 c-38 -4 -77 -22 -183 -85 -74 -44 -210 -124
-304 -178 -223 -127 -286 -170 -316 -213 l-24 -35 -5 -433 -5 -432 -24 -26
c-46 -49 -128 -43 -171 12 -19 24 -20 42 -20 416 0 367 -1 393 -19 422 -27 45
-61 68 -286 197 -110 62 -276 158 -370 212 -249 145 -275 157 -312 151 -38 -5
-43 4 -43 79 0 47 3 56 31 79 37 31 102 35 152 10z m1019 -20 c92 -46 115
-115 58 -172 -64 -64 -219 -83 -316 -38 -130 60 -122 168 16 217 66 23 189 20
242 -7z m-439 -708 c65 -26 113 -113 100 -177 -8 -43 -50 -72 -91 -65 -75 12
-132 85 -132 169 0 37 5 49 26 66 31 25 52 26 97 7z m-368 -65 c78 -35 155
-151 155 -232 0 -63 -41 -123 -92 -134 -49 -11 -93 3 -142 47 -85 74 -123 182
-91 263 27 73 89 93 170 56z m1481 -15 c32 -32 34 -38 34 -97 0 -76 -22 -129
-77 -189 -77 -87 -164 -100 -222 -34 -28 31 -31 42 -31 97 1 134 104 255 219
257 36 0 49 -6 77 -34z m-1105 -500 c64 -43 91 -145 55 -201 -13 -20 -25 -25
-59 -25 -83 0 -147 71 -147 164 0 36 5 48 26 65 35 28 81 26 125 -3z"/>
<path d="M4140 3964 c-151 -86 -294 -167 -317 -180 l-42 -24 28 -43 c15 -23
34 -58 42 -78 l14 -36 315 179 c173 98 321 182 329 187 12 7 5 21 -32 71 -26
34 -47 66 -47 71 0 5 -3 9 -7 9 -5 0 -132 -70 -283 -156z"/>
<path d="M5612 4049 c-29 -40 -51 -73 -50 -74 2 -2 118 -68 258 -147 429 -242
400 -228 400 -205 0 7 16 40 35 72 29 47 33 61 23 71 -7 6 -92 57 -188 112
-96 55 -230 132 -297 171 -68 39 -124 71 -125 71 -2 0 -27 -32 -56 -71z"/>
<path d="M4982 3647 c-18 -20 -22 -35 -22 -96 0 -63 3 -75 25 -96 34 -35 86
-34 114 1 17 21 21 41 21 96 0 60 -3 72 -25 93 -32 33 -83 34 -113 2z"/>
<path d="M4980 3218 c-16 -18 -20 -35 -20 -94 0 -92 18 -119 80 -119 62 0 80
27 80 117 0 60 -3 72 -25 93 -32 33 -86 34 -115 3z"/>
<path d="M5003 2800 c-32 -13 -43 -41 -43 -115 0 -57 3 -69 25 -90 34 -35 86
-34 114 1 31 39 30 143 -1 178 -26 29 -63 39 -95 26z"/>
<path d="M4965 2368 c-149 -53 -203 -253 -99 -368 88 -97 223 -107 331 -24
104 79 104 242 1 341 -60 58 -154 79 -233 51z"/>
</g>
</svg>
