<?xml version="1.0" encoding="utf-8"?>
<!DOCTYPE svg PUBLIC "-//W3C//DTD SVG 1.0//EN" "http://www.w3.org/TR/2001/REC-SVG-20010904/DTD/svg10.dtd">
<svg version="1.0" xmlns="http://www.w3.org/2000/svg" width="642px" height="642px" viewBox="0 0 642 642" preserveAspectRatio="xMidYMid meet">
 <g fill="#000000">
  <path d="M306.5 612 c-26.2 -3 -44.6 -15.4 -58.8 -39.8 -2 -3.5 -3.7 -6.9 -3.7 -7.6 0 -0.7 -6.6 -4.4 -14.7 -8.1 -8.2 -3.7 -15.7 -7.4 -16.8 -8.1 -3.2 -2.3 -5.4 -1.6 -10.6 3.3 -17.6 16.6 -40.8 23.6 -68 20.3 -16.8 -2 -25.7 -5.4 -39.8 -14.9 -22.4 -15.3 -34.3 -47.1 -29.6 -79.4 2.8 -19.4 9.2 -32.6 21.5 -44.7 4.2 -4.1 9.1 -8.6 10.8 -9.8 l3.2 -2.4 -0.2 -17.1 -0.3 -17.2 -9 -3.8 c-16.5 -6.9 -24 -11.2 -32.6 -18.7 -13.9 -12.2 -24.7 -24.5 -30.6 -34.9 -9.8 -17.4 -19.6 -39.2 -24.4 -54.6 -2.4 -7.6 -2.9 -10.7 -2.9 -20 0 -10.4 0.2 -11.3 3.3 -17.5 4 -8 11.3 -14.2 19.4 -16.6 7.8 -2.3 24.4 -1.6 29.9 1.3 18.5 9.4 22.6 11.3 27.2 12.2 6.8 1.4 18.6 1.4 25.4 0 12.2 -2.4 30 -13.9 42.8 -27.5 6.8 -7.1 16.5 -20.7 20.6 -28.9 1.7 -3.3 5.5 -10.3 8.4 -15.5 2.9 -5.2 8.3 -15.1 12 -22 26.8 -50 27.4 -51.2 36.2 -62.4 13.1 -16.6 26.9 -27.8 45 -36.5 12.4 -5.9 17.7 -7.5 32.8 -9.7 19.1 -2.8 40.7 -0.6 57 5.7 17.6 6.8 30.3 15.2 44.1 29.1 13.3 13.5 20 23.2 32.5 47.3 3.1 6.1 6 11.5 6.4 12 0.4 0.6 3.4 6.2 6.7 12.5 23.3 44.6 27 50.8 38.9 65.7 10.8 13.5 29.1 26 43.9 29.9 6.6 1.8 20.4 1.7 28.2 -0.1 6 -1.4 9.4 -2.9 24.3 -10.6 6.3 -3.3 6.7 -3.4 18.5 -3.4 11 0 12.5 0.3 17.5 2.7 10 4.9 15 11.3 17.6 22.8 1.9 8.4 1.4 16.8 -1.7 27.5 -2.7 9 -6.9 20.7 -8 22 -0.5 0.5 -0.9 1.6 -0.9 2.5 0 2.4 -10.2 22.7 -15.5 31 -5.2 8 -16.1 21.5 -22.8 28.2 -11.1 10.9 -23.9 19.4 -39.8 26.3 l-10.4 4.4 -0.3 16.9 -0.2 16.8 4.5 3.3 c6.2 4.4 16.5 14.1 16.5 15.4 0 0.6 0.9 2 1.9 3.1 3.4 3.7 8.9 14.9 11.1 22.6 3.3 11.6 3.9 31.6 1.2 44.2 -2 9.1 -6.4 21.1 -10.1 26.8 -5.7 9 -15.6 19.5 -22.2 23.5 -14.9 9 -26.1 12.4 -43.9 13.2 -24.4 1 -44.1 -5.5 -59.3 -19.7 l-7.6 -7.1 -8.8 4.2 c-4.8 2.4 -12.6 6.1 -17.2 8.3 l-8.4 4.1 -5.6 9.3 c-12.9 21.3 -28 32.9 -50.6 38.7 -7.6 1.9 -23.6 2.6 -34 1.5z m28.3 -32.6 c11.8 -5 15.5 -7.4 14.4 -9 -0.4 -0.5 -1.9 -1.5 -3.4 -2.3 -4.6 -2.4 -12.7 -11.3 -15.3 -16.8 -10.1 -21.3 -4.8 -45.6 12.9 -59.4 l5.6 -4.4 -2.7 -2.2 c-7.5 -6.5 -20.9 -9.8 -34 -8.3 -7.6 0.8 -10.3 1.9 -18.2 6.9 l-5.4 3.4 2.9 2.1 c10.7 7.7 16.9 16.6 19.9 29 2.4 9.4 0.8 24.9 -3.2 32.6 -4.4 8.4 -9.1 13.3 -17 17.8 -1.3 0.7 -2.3 1.7 -2.3 2.2 0 1.1 8.5 6.3 13 7.9 8.2 3.1 26.1 3.3 32.8 0.5z m-179.9 -38.5 c6.8 -1.1 12 -3.3 16 -6.8 1.3 -1.2 2.9 -2.1 3.5 -2.2 1.7 -0.1 12.5 -12.9 14.6 -17.4 1.1 -2.2 2.9 -6 4.1 -8.5 2.5 -5.3 4 -22.2 2 -23.4 -0.6 -0.4 -1.1 -1.8 -1.1 -3.1 0 -3.5 -6.4 -15.4 -11.6 -21.5 -4.7 -5.5 -12.5 -12 -14.4 -12 -0.6 0 -3.2 -1.1 -5.9 -2.5 -3 -1.6 -7.3 -2.8 -11.4 -3.2 -6.8 -0.6 -20.4 1 -24.1 3 -4.5 2.2 -5.6 2.7 -6.6 2.7 -1.3 0 -5.4 3.3 -11.5 9.5 -5.9 5.9 -11.8 17.2 -13.6 26.1 -1 4.8 -1 8.2 -0.1 15.2 1.4 12 6 21.1 14.8 29.8 8.3 8.2 14.9 12 23.8 13.5 3.9 0.7 7.6 1.6 8.1 2.1 0.6 0.5 2.4 0.7 4 0.3 1.7 -0.3 5.9 -1 9.4 -1.6z m347.6 0.5 c4.6 -0.6 5.6 -1 14.5 -5.4 10.1 -4.9 19.1 -14.7 24.5 -26.5 3.6 -8 4.6 -23.1 2.1 -31.8 -4.9 -16.8 -18.5 -30.8 -34.9 -35.8 -5.5 -1.7 -8.7 -2 -16.5 -1.7 -5.7 0.2 -11.1 1 -13.2 2 -1.9 0.8 -4.6 2 -6 2.5 -8.4 3.5 -19.1 14.8 -24.8 26.3 -3.7 7.4 -3.7 7.4 -3.6 20 0.1 13.7 1.5 19 7.3 27.4 4.1 5.7 12.9 14.6 14.7 14.6 0.8 0 1.4 0.4 1.4 0.8 0 1.6 8.9 5.3 15.2 6.4 3.5 0.6 7 1.4 7.8 1.9 0.8 0.5 2.9 0.7 4.5 0.4 1.7 -0.4 4.8 -0.8 7 -1.1z m-227 -2 c2.9 -1.9 6.5 -7.7 6.5 -10.5 0 -1.1 -0.5 -3 -1.1 -4.2 -1.8 -3.6 -12.9 -13.7 -15 -13.7 -1.1 0 -6.4 -2.3 -11.7 -5.2 -12.9 -6.8 -22.2 -11.4 -24.8 -12.2 -2 -0.6 -2.2 -0.2 -2.7 4.6 -0.3 2.9 -1.3 8.4 -2.1 12.3 -0.9 3.8 -1.6 7 -1.6 7.1 0 0 4.2 2 9.3 4.4 5 2.3 14.5 6.9 20.9 10.1 6.4 3.3 12.4 5.9 13.2 5.9 0.9 0 1.6 0.4 1.6 0.9 0 0.8 1.7 1.6 4.3 2 0.4 0 1.9 -0.6 3.2 -1.5z m95.3 0.1 c2.1 -0.9 6 -2.8 8.7 -4.2 10.6 -5.5 22.3 -11.2 28.7 -14.2 3.6 -1.6 6.8 -3.4 7.1 -3.8 0.3 -0.4 -0.4 -4.8 -1.4 -9.8 -1 -4.9 -1.8 -10.5 -1.9 -12.3 0 -1.9 -0.3 -3.2 -0.8 -3 -0.4 0.2 -5.7 2.7 -11.7 5.7 -24.9 12.2 -29 14.1 -30 14.1 -1.7 0 -8 7 -10.5 11.6 -2 3.7 -2.1 4.6 -1 7.8 1.4 4.4 5.6 9.6 7.7 9.6 0.8 0 3.1 -0.7 5.1 -1.5z m-101.9 -78 l6 -5 0 -8.9 c0.1 -7 -0.2 -8.6 -1.1 -7.8 -0.7 0.6 -7.1 6.7 -14.2 13.6 l-13 12.5 5.4 2.5 5.4 2.5 2.7 -2.2 c1.5 -1.2 5.5 -4.4 8.8 -7.2z m118.2 6.4 c2.2 -1.1 3.9 -2.4 3.7 -2.8 -0.2 -0.5 -6.3 -6.6 -13.5 -13.6 l-13.3 -12.7 0 8.8 0.1 8.9 7.4 5.8 c4.1 3.2 7.5 6.3 7.5 6.8 0 1.5 3.9 1 8.1 -1.2z m-163.3 -25.1 c3.3 -3.5 10.4 -11 15.8 -16.7 5.5 -5.7 12.3 -12.7 15.2 -15.6 2.8 -2.8 5.2 -5.6 5.2 -6.1 0 -0.5 -2 -3.6 -4.4 -6.9 -2.5 -3.2 -5.1 -7.1 -5.8 -8.5 -0.7 -1.4 -1.7 -2.8 -2.3 -3.2 -0.5 -0.4 -5.5 3.8 -11 9.2 -5.5 5.5 -15.5 15.4 -22.3 22.1 -6.8 6.7 -12.2 12.5 -12 12.9 0.2 0.4 2 2.7 4 5.1 6.1 7.2 8.4 10.3 9.1 12.2 0.3 0.9 1 1.7 1.6 1.7 0.5 0 3.6 -2.8 6.9 -6.2z m201.1 4 c2.1 -4.1 6 -9.2 9.8 -12.9 l3.6 -3.7 -22.9 -22.6 c-12.6 -12.4 -23.1 -22.6 -23.4 -22.6 -0.3 0.1 -2.4 3.1 -4.8 6.8 -2.3 3.7 -5.4 8.2 -6.9 10 l-2.6 3.2 13.3 12.8 c7.3 7 17.3 16.9 22.3 22 4.9 5 9.3 9.2 9.7 9.2 0.4 0 1.2 -1 1.9 -2.2z m-101.6 -1.1 l10.7 0.2 0 -10.1 0 -10 -3.1 0.6 c-1.7 0.3 -8.3 0.6 -14.5 0.6 l-11.4 0 0 10 0 10.1 3.8 -0.8 c2 -0.4 8.5 -0.7 14.5 -0.6z m-164.3 -43.2 l0 -8.5 -14 0 -14 0 0 7.9 0 7.9 10.8 -0.5 c6.2 -0.3 11.7 -0.1 13.2 0.5 1.4 0.6 2.8 1.1 3.3 1.1 0.4 0.1 0.7 -3.7 0.7 -8.4z m349 -0.6 c0 -9 0 -9.1 -2.2 -8.5 -1.3 0.3 -7.6 0.6 -14 0.6 l-11.8 0 0 8 0 8 10.3 -0.6 c5.6 -0.3 11.5 -0.1 13.2 0.5 1.7 0.5 3.3 1 3.8 1 0.4 0.1 0.7 -4 0.7 -9z m-173.4 -7.5 c6.6 -1.9 13.7 -6.4 19.5 -12.4 5.1 -5.3 10.9 -13.2 10.9 -15 0 -0.6 0.7 -2.1 1.5 -3.4 3.2 -4.9 3.7 -27.8 0.6 -30.9 -0.6 -0.6 -1.1 -1.9 -1.1 -2.8 0 -2.8 -9.5 -16.2 -14.1 -20 -5.8 -4.7 -11.6 -8.3 -15.9 -9.8 -9.9 -3.4 -25 -3.2 -32.1 0.3 -1.8 0.9 -3.6 1.6 -4.1 1.6 -0.5 0 -3.5 1.8 -6.7 4 -10.6 7.2 -18.9 18.5 -22.1 30.3 -1.6 5.8 -0.8 20.2 1.4 26.5 2.8 7.8 11.5 19.3 18.7 24.8 3.4 2.5 14.9 7.4 17.5 7.4 1.6 0 3.6 0.5 4.4 1 1.9 1.3 14.7 0.3 21.6 -1.6z m-139.2 -3.3 c2.1 -2.3 1.2 -2.6 -3.1 -1.5 -1.6 0.4 -2.3 1.4 -2.3 3.1 0 2 0.3 2.2 1.8 1.4 0.9 -0.5 2.6 -1.9 3.6 -3z m252.4 -1.2 c-3 -1.9 -3.9 -0.8 -1.6 1.9 2.1 2.6 2.3 2.7 2.6 0.9 0.2 -1.1 -0.2 -2.4 -1 -2.8z m-272.7 -29.8 c7 -1.2 16.4 -3.3 21 -4.7 4.6 -1.4 10 -3 12 -3.5 1.9 -0.4 4.8 -1.5 6.5 -2.3 1.6 -0.9 5.3 -2.1 8.1 -2.7 2.9 -0.7 5.3 -1.6 5.3 -2.1 0 -0.4 0.6 -0.8 1.3 -0.8 0.7 0 3.2 -0.9 5.4 -2 3.5 -1.7 4.1 -2.5 4.5 -5.7 2.2 -17.7 14.8 -41.4 26.9 -50.7 6.8 -5.2 18.9 -12.2 23.4 -13.6 2.2 -0.7 4.5 -1.7 5.1 -2.1 4.4 -3.5 18.2 -4.7 31.9 -2.8 3.9 0.5 8.8 1.2 11 1.5 2.2 0.3 4.9 0.9 6 1.3 1.1 0.4 3.6 1.4 5.5 2.1 7.4 2.6 9.6 3.6 13.7 6.3 2.4 1.5 4.5 2.7 4.8 2.7 0.2 0 4 3.4 8.4 7.6 6.9 6.6 15.1 17.7 15.1 20.4 0 0.5 0.4 1 0.8 1.2 1.2 0.5 8.2 22.1 8.2 25.2 0 3.5 1.7 6.6 3.5 6.6 1.5 0 2.7 0.5 7.4 3 3.3 1.7 15.2 5.8 22.1 7.5 3 0.8 9.9 2.6 15.3 4 30.5 8 63.1 7.9 81.8 -0.3 7 -3.1 9.1 -4.1 13.4 -6.7 2.2 -1.4 4.7 -2.8 5.5 -3.2 9.4 -4.3 32.2 -28.8 40.6 -43.5 3.8 -6.8 10.4 -21 10.4 -22.7 0 -0.5 0.8 -2.6 1.9 -4.8 1.9 -3.9 6.1 -17 6.1 -19.1 0 -2 -3.4 -5.2 -5.5 -5.2 -1.1 0.1 -4.5 1.6 -7.5 3.5 -7.6 4.8 -10.5 6.1 -19.6 8.5 -4.3 1.2 -9.3 2.6 -11 3.1 -1.7 0.5 -10 0.9 -18.5 0.9 -14.8 0 -21.5 -0.9 -28.4 -4 -1.1 -0.5 -3.7 -1.4 -5.8 -2 -2.1 -0.7 -7 -2.9 -11 -5.1 -4 -2.1 -7.9 -4.2 -8.7 -4.6 -6 -2.7 -25.7 -21.4 -33.2 -31.6 -2.2 -2.8 -4.6 -6 -5.4 -7 -0.7 -0.9 -1.4 -2 -1.4 -2.4 0 -0.3 -1 -2 -2.3 -3.7 -1.2 -1.7 -2.8 -4.2 -3.5 -5.6 -0.7 -1.4 -2.8 -5.2 -4.7 -8.5 -2 -3.3 -4.4 -7.8 -5.5 -10 -1.1 -2.2 -3.6 -6.7 -5.4 -10 -1.9 -3.3 -5 -9.1 -7 -13 -2 -3.8 -5.3 -10.1 -7.5 -14 -2.1 -3.8 -5.5 -10.1 -7.5 -14 -2 -3.8 -4.7 -8.8 -6 -11 -1.4 -2.2 -2.8 -4.7 -3.3 -5.5 -2.3 -4.8 -11.8 -17.8 -16.4 -22.8 -11.6 -12.2 -25.7 -22.5 -35.8 -26.1 -2.8 -1 -5.4 -2.1 -5.8 -2.4 -0.3 -0.4 -1.7 -0.7 -3 -0.7 -1.4 0 -3.4 -0.5 -4.6 -1.1 -4 -2.2 -24.4 -1.1 -35.7 1.9 -5.7 1.5 -18.4 8.1 -25 13 -9.8 7.2 -25.4 24.7 -30.6 34.2 -1.1 1.9 -2.7 4.6 -3.6 6 -1.7 2.6 -6.7 11.5 -11.7 21 -1.6 3 -4.6 8.7 -6.6 12.5 -2.1 3.9 -4.7 8.8 -5.8 11 -1.1 2.2 -2.6 4.7 -3.2 5.5 -0.7 0.8 -3.7 6.3 -6.7 12.1 -3.1 5.8 -6.8 12.5 -8.2 14.8 -1.5 2.3 -3 5 -3.3 5.9 -3 7.6 -29.5 40.8 -32.9 41.1 -0.6 0.1 -1.7 0.8 -2.5 1.7 -1.9 2.4 -12.2 9.2 -22.3 15 -1.6 0.9 -8.8 3.4 -16 5.5 -12.6 3.7 -13.7 3.9 -27.8 3.9 -12.7 0 -16.1 -0.4 -24.9 -2.6 -5.6 -1.5 -12.5 -3.9 -15.3 -5.4 -2.8 -1.5 -7.3 -3.9 -10 -5.4 -6.1 -3.2 -7.3 -3.3 -8.8 0 -1.5 3.3 0.7 11.9 5.3 20.6 0.5 1 0.9 2.3 0.9 3 0 0.6 0.8 3 1.8 5.2 1.1 2.3 3.6 8 5.7 12.8 2 4.8 4.4 9.3 5.1 9.9 0.8 0.6 1.4 1.6 1.4 2.1 0 2.3 11.1 17 17.9 23.8 7.3 7.2 21.7 18 24 18 0.6 0 1.1 0.5 1.1 1 0 0.6 0.5 1 1 1 0.6 0 4 1.4 7.5 3 6.1 2.9 15.4 5.6 27 7.9 7.5 1.5 29.3 0.6 43.6 -1.8z"/>
 </g>
 <g fill="#ffffff">
  <path d="M0 321 l0 -321 321 0 321 0 0 321 0 321 -321 0 -321 0 0 -321z m337.9 286.3 c21.8 -5.3 37.4 -17.3 50.2 -38.5 l5.6 -9.3 8.4 -4.1 c4.6 -2.2 13.3 -6.4 19.2 -9.3 l10.9 -5.2 8.5 8.1 c15.4 14.6 35.8 21.9 57.4 20.6 15.1 -0.9 27 -4.7 40.8 -13.1 6.6 -4 16.5 -14.5 22.2 -23.5 3.6 -5.7 8.1 -17.7 10.1 -26.8 3.7 -17.4 1.1 -37.7 -6.9 -52.2 -1.9 -3.6 -4.3 -7.4 -5.4 -8.6 -1 -1.1 -1.9 -2.5 -1.9 -3.1 0 -1.3 -10.3 -11 -16.5 -15.4 l-4.5 -3.3 0.2 -19.8 0.3 -19.9 10.4 -4.4 c15.9 -6.9 28.7 -15.4 39.8 -26.3 6.7 -6.7 17.6 -20.2 22.8 -28.2 5.3 -8.3 15.5 -28.6 15.5 -31 0 -0.9 0.4 -2 0.9 -2.5 0.4 -0.6 2 -4.1 3.4 -8 7 -19.4 8.3 -27 6.1 -36.3 -2.5 -10.8 -7.6 -17.3 -17.4 -22 -4.7 -2.2 -6.8 -2.6 -14.5 -2.7 -8.4 0 -9.6 0.3 -15.5 3.4 -21.2 11 -25 12.1 -42 12.1 -13.5 0 -18.5 -1.2 -29.8 -6.9 -12.8 -6.5 -22.2 -13.9 -30.6 -24.4 -11.9 -14.9 -15.6 -21.1 -38.9 -65.7 -3.3 -6.3 -6.3 -11.9 -6.7 -12.5 -0.4 -0.5 -3.3 -5.9 -6.4 -12 -12.5 -24.1 -19.2 -33.8 -32.5 -47.3 -5.8 -5.9 -13.7 -12.8 -17.6 -15.4 -25.1 -16.7 -51.1 -23.2 -77.5 -19.4 -15.1 2.2 -20.4 3.8 -32.8 9.7 -18.1 8.7 -31.9 19.9 -45 36.5 -8.8 11.2 -9.4 12.4 -36.2 62.4 -3.7 6.9 -9.1 16.8 -12 22 -2.9 5.2 -6.7 12.2 -8.4 15.5 -10.6 20.7 -30.3 41.2 -48.9 50.8 -10.2 5.2 -18.7 7.2 -31 7 -15.2 -0.3 -17.5 -1 -41.9 -13.6 -5.4 -2.7 -17 -3.4 -24.1 -1.3 -8.3 2.4 -15.4 8.5 -19.6 17 -5.8 11.7 -4.6 21.9 5.6 47.1 4.4 11 12.6 28.1 18.6 38.6 5.9 10.4 16.7 22.7 30.6 34.9 8.6 7.5 16.1 11.8 32.6 18.7 l9 3.8 0.3 20.2 0.2 20.1 -3.2 2.4 c-1.7 1.2 -6.6 5.7 -10.8 9.8 -12.3 12 -18.7 25.3 -21.5 44.4 -1.6 11.3 -1.5 14.8 0.6 26.6 2.4 13.1 9.1 26.9 18.1 37.2 7.8 9 21.7 17.9 33.8 21.6 8.5 2.6 27.4 4.7 32.5 3.7 2.2 -0.5 4.6 -0.7 5.3 -0.6 0.8 0.1 5.3 -1 10 -2.5 14 -4.3 22.1 -9.1 32.7 -19.2 l6.3 -6.1 6.4 3.2 c3.4 1.9 12.5 6.2 20.1 9.7 7.5 3.5 13.7 6.9 13.7 7.6 0 1.9 6.6 12.9 11.7 19.6 9.1 11.9 23 21.5 36.8 25.2 13.3 3.7 29.7 4 42.4 0.9z"/>
  <path d="M307.5 584.3 c-9.2 -1.9 -22.6 -9 -25.3 -13.4 -1 -1.6 -1 -2 0.5 -2.5 2.1 -0.7 6.6 -3.1 10.8 -5.8 5.5 -3.4 14.4 -17.2 14.5 -22.3 0 -1.2 0.5 -4.3 1.1 -7 1 -4.1 0.9 -6.1 -0.6 -11.9 -3.2 -12.9 -9.1 -21.5 -20 -29 -3 -2 -5.5 -4 -5.5 -4.4 0 -2.1 10.8 -9.5 18 -12.5 6.3 -2.5 25.4 -3 33 -0.9 4.9 1.4 13.7 5.7 15 7.4 0.3 0.3 2 1.6 3.8 2.9 3.5 2.4 4.3 5.1 1.4 5.1 -2.6 0 -13.7 9.4 -17.4 14.8 -3.6 5.2 -6.7 12.7 -7.4 18.2 -0.2 1.9 -0.7 4.2 -0.9 5.1 -0.8 2.3 2.3 14.5 5 20.4 2.7 5.6 11.3 14.8 15.7 16.7 1.5 0.7 2.8 1.6 2.8 2 0 0.5 0.9 0.8 1.9 0.8 1 0 2.1 0.7 2.4 1.5 0.7 1.7 -6 7.4 -11.3 9.8 -1.9 0.8 -5.3 2.3 -7.5 3.3 -3.1 1.4 -6.8 1.8 -16 2 -6.6 0 -12.9 -0.1 -14 -0.3z"/>
  <path d="M138.5 545.1 c-0.3 -0.6 -1.7 -0.8 -3 -0.5 -1.2 0.3 -2.6 0.1 -3 -0.5 -0.3 -0.6 -1.1 -0.8 -1.7 -0.5 -1.1 0.7 -2.2 0.3 -11.1 -4.1 -12.2 -5.9 -24.3 -21.2 -27.5 -34.5 -1.4 -6.3 -1.5 -21.8 -0.1 -27.6 2 -8.3 8 -19.5 13.4 -24.9 6.1 -6.2 10.2 -9.5 11.5 -9.5 0.6 0 1.8 -0.4 2.8 -0.9 3 -1.5 6.6 -2.9 9.7 -3.7 11.8 -3.1 29.3 -1.9 36.5 2.5 1.9 1.1 4.1 2.1 4.8 2.1 2.1 0 9.7 6.2 14.7 12.1 4.3 5 12.8 20.5 12.4 22.5 -0.1 0.5 0 1.6 0.4 2.4 1.2 3.3 1.5 12.3 0.6 18.2 -1 6.1 -2.1 9.3 -6.6 18.7 -2.3 4.9 -13.1 17.9 -14.9 18 -0.6 0.1 -2.2 1 -3.5 2.2 -5.8 5 -12.8 7.1 -29 8.6 -3.6 0.3 -5.9 0.1 -6.4 -0.6z"/>
  <path d="M488.8 545.5 c-0.3 -0.4 -1.7 -0.8 -3 -1 -10 -1.7 -20.8 -5.6 -20.8 -7.7 0 -0.4 -0.6 -0.8 -1.4 -0.8 -1.8 0 -10.6 -8.9 -14.7 -14.7 -3.5 -5 -8.2 -17 -7.5 -18.9 0.3 -0.7 0.2 -1.6 -0.3 -1.8 -1.3 -0.9 -0.4 -20 1.2 -25.7 2 -6.8 7.9 -16.4 13.6 -22.5 5.2 -5.3 13.8 -11.4 16.3 -11.4 0.9 0 1.9 -0.4 2.2 -0.9 1 -1.5 9.7 -3.2 18.6 -3.5 16.1 -0.6 29.5 4.6 40.5 15.9 10.3 10.6 15.2 23.3 14.9 39 -0.2 11 -0.8 14.2 -4 21.1 -5.3 11.7 -14.4 21.5 -24.4 26.4 -3.6 1.8 -7.3 3.7 -8.4 4.2 -2.8 1.5 -21.7 3.4 -22.8 2.3z"/>
  <path d="M268.3 543.8 c-1.8 -0.6 -3.3 -1.5 -3.3 -1.9 0 -0.5 -0.7 -0.9 -1.6 -0.9 -0.8 0 -6.8 -2.6 -13.2 -5.9 -6.4 -3.2 -16.3 -8 -21.8 -10.6 l-10.2 -4.7 1.8 -6.7 c3.5 -13 4.3 -18 3.7 -22.6 -0.4 -2.6 -0.3 -4.5 0.1 -4.3 0.4 0.2 3.4 1.7 6.7 3.2 8.8 4.1 15.8 7.6 26.7 13.4 5.3 2.9 10.6 5.2 11.7 5.2 2.1 0 13.2 10.1 15 13.7 1.8 3.6 1.3 11.8 -1 15.7 -2.1 3.6 -7.6 7.7 -10 7.5 -0.8 -0.1 -2.9 -0.6 -4.6 -1.1z"/>
  <path d="M359.2 541.7 c-5.3 -5.7 -6.7 -15 -3 -21.4 2.5 -4.4 8.7 -11.3 10.3 -11.3 1 0 10.8 -4.6 33.3 -15.9 7.3 -3.6 13.7 -6.7 14.2 -6.9 0.6 -0.2 1 1.6 1 4.1 0 5.1 3.6 24.1 5.1 27 0.6 1 0.9 2 0.7 2.1 -0.2 0.2 -3.9 2 -8.3 4.1 -8.3 3.8 -21.3 10.3 -30 14.8 -12.6 6.5 -19.4 7.5 -23.3 3.4z"/>
  <path d="M249.3 471.7 c-4.6 -2.2 -8.3 -4.5 -8.3 -5.1 0 -1.1 35.1 -35.6 36.3 -35.6 0.4 0 0.7 6.4 0.6 14.3 l0 14.2 -9.6 8 c-5.2 4.4 -9.8 8 -10.1 8.1 -0.4 0.1 -4.4 -1.7 -8.9 -3.9z"/>
  <path d="M375.3 471.1 c-2.7 -2.5 -7 -6.2 -9.6 -8.1 l-4.6 -3.5 -0.1 -14.3 c0 -8.3 0.4 -14.2 0.9 -14 1.6 0.6 36.1 34.7 36.1 35.7 0 0.5 -1 1.3 -2.2 1.7 -1.3 0.3 -5.3 2.1 -8.9 3.9 l-6.6 3.3 -5 -4.7z"/>
  <path d="M213.5 452.2 c-2.6 -5 -4.9 -8.1 -12.1 -15.9 l-6 -6.6 14 -13.9 c7.8 -7.6 19.5 -19.3 26.2 -25.8 6.7 -6.6 12.3 -12 12.6 -12 0.3 0 0.9 1.1 1.2 2.5 0.4 1.4 1.1 2.5 1.6 2.5 0.6 0 1 0.5 1 1.1 0 0.9 2.1 4.2 11 16.7 l3.1 4.4 -6.8 6.8 c-3.7 3.7 -11.2 11.4 -16.7 17.1 -18.2 19.2 -21.9 23 -24.6 24.9 l-2.6 1.9 -1.9 -3.7z"/>
  <path d="M412.2 444.8 c-6 -6.2 -17.6 -17.7 -25.7 -25.6 l-14.6 -14.2 4.4 -5.3 c5.4 -6.2 12.7 -17.5 12.7 -19.4 0 -3.3 4.1 -0.4 15.8 11 30.1 29.3 38.8 38.3 38.4 39.7 -0.2 0.8 -2.3 3.1 -4.7 5 -2.3 1.9 -5 4.9 -5.9 6.5 -0.9 1.7 -3 4.8 -4.6 7 -1.6 2.2 -2.9 4.6 -3 5.3 0 2.5 -1.9 1 -12.8 -10z"/>
  <path d="M302.6 450.3 c-0.3 -0.3 -0.6 -6.5 -0.6 -13.8 l0 -13.1 12.8 0.1 c7 0 14.7 -0.2 17.2 -0.5 l4.5 -0.5 0.3 13.1 c0.2 10.5 0 13.3 -1.2 14.3 -1.1 0.9 -2 0.9 -3.4 0.2 -1.1 -0.6 -2.2 -0.8 -2.4 -0.5 -0.3 0.2 -2.7 0 -5.3 -0.6 -4.3 -1 -9.7 -0.5 -19.1 1.5 -1.2 0.3 -2.4 0.2 -2.8 -0.2z"/>
  <path d="M128.4 412.7 c-0.2 -0.7 -0.3 -6 -0.2 -11.7 l0.3 -10.3 17 0 17 0 -0.1 3.1 c0 1.8 -0.1 7.1 -0.2 11.8 l-0.2 8.7 -5.2 -0.7 c-6.8 -0.9 -17 -1 -23.1 -0.2 -3.5 0.4 -4.9 0.2 -5.3 -0.7z"/>
  <path d="M477 402.2 l0 -11.8 10.3 0.4 c5.6 0.2 13.2 0 17 -0.5 l6.7 -1 0 12.5 0 12.5 -5.7 -0.8 c-7.1 -0.9 -13.8 -0.9 -22 -0.1 l-6.3 0.6 0 -11.8z"/>
  <path d="M187 395.1 l0 -7.8 10.8 -2.6 c5.9 -1.4 10.9 -2.3 11.2 -2 0.6 0.6 -20 20.3 -21.2 20.3 -0.4 0 -0.8 -3.5 -0.8 -7.9z"/>
  <path d="M440.1 392 c-5.7 -5.5 -10.2 -10.2 -10 -10.4 0.2 -0.3 3.6 0.4 7.4 1.5 3.9 1.1 8.7 2.4 10.8 3 l3.7 1 0 7.4 c0 4.1 -0.3 7.5 -0.7 7.5 -0.5 0 -5.5 -4.5 -11.2 -10z"/>
  <path d="M310.7 399.4 c-0.3 -0.3 -2.3 -0.8 -4.4 -1.1 -3.6 -0.5 -15 -5.3 -18.2 -7.7 -4 -3 -10.6 -10.4 -13.7 -15.2 -6 -9.4 -7.7 -15.8 -7.8 -29.4 0 -12.7 4.3 -24 12.9 -33.8 4.8 -5.4 15.3 -13.2 17.7 -13.2 0.8 0 1.8 -0.4 2.4 -0.9 1.8 -1.9 12.1 -3.9 20 -3.9 18.9 -0.2 34.2 8 44.5 23.7 2.7 4 4.9 7.9 4.9 8.6 0 0.6 0.8 2.7 1.7 4.5 1.1 2.4 1.7 6.5 1.9 13.9 0.3 10.8 -0.8 17.8 -3.2 21.8 -0.8 1.2 -1.4 2.7 -1.4 3.3 0 1.9 -6.1 10.2 -11.5 15.6 -9.7 9.7 -20.9 14.2 -36.1 14.3 -5 0.1 -9.3 -0.1 -9.7 -0.5z"/>
  <path d="M139 365.9 c-16.8 -1.6 -27 -4 -37.5 -8.9 -3.5 -1.7 -6.9 -3 -7.5 -3 -0.5 0 -1 -0.4 -1 -1 0 -0.5 -0.5 -1 -1.1 -1 -2.3 0 -16.7 -10.8 -24 -18 -6.8 -6.8 -17.9 -21.5 -17.9 -23.8 0 -0.5 -0.6 -1.5 -1.4 -2.1 -0.7 -0.6 -3.1 -5.1 -5.1 -9.9 -2.1 -4.8 -4.6 -10.5 -5.7 -12.8 -1 -2.2 -1.8 -4.6 -1.8 -5.2 0 -0.7 -0.4 -2 -0.9 -3 -3.7 -6.9 -7.2 -18.5 -6.7 -22.2 0.9 -8.1 6.3 -9.8 15.2 -4.9 20.4 11.2 29.6 13.8 48.3 13.7 11.3 -0.1 13.6 -0.5 25.1 -3.8 7 -2.1 14 -4.5 15.6 -5.4 10.1 -5.8 20.4 -12.6 22.3 -15 0.8 -0.9 1.9 -1.6 2.5 -1.7 3.4 -0.3 29.9 -33.5 32.9 -41.1 0.3 -0.9 1.8 -3.6 3.3 -5.9 1.4 -2.3 5.1 -9 8.2 -14.8 3 -5.8 6 -11.3 6.7 -12.1 0.6 -0.8 2.1 -3.3 3.2 -5.5 1.1 -2.2 3.7 -7.1 5.8 -11 2 -3.8 5 -9.5 6.6 -12.5 5 -9.5 10 -18.4 11.7 -21 0.9 -1.4 2.5 -4.1 3.6 -6 5.2 -9.5 20.8 -27 30.6 -34.2 6.5 -4.8 21.9 -12.8 24.6 -12.8 0.8 0 2.4 -0.4 3.4 -1 2.7 -1.4 8.2 -2.1 21.8 -2.6 9.4 -0.3 13.2 0 15.9 1.1 1.9 0.8 4.5 1.5 5.8 1.5 1.2 0 2.5 0.3 2.8 0.7 0.4 0.3 3 1.4 5.8 2.4 10.1 3.6 24.2 13.9 35.8 26.1 4.6 5 14.1 18 16.4 22.8 0.5 0.8 1.9 3.3 3.3 5.5 1.3 2.2 4 7.2 6 11 2 3.9 5.4 10.2 7.5 14 2.2 3.9 5.5 10.2 7.5 14 2 3.9 5.1 9.7 7 13 1.8 3.3 4.3 7.8 5.4 10 1.1 2.2 3.5 6.7 5.5 10 1.9 3.3 4 7.1 4.7 8.5 0.7 1.4 2.3 3.9 3.5 5.6 1.3 1.7 2.3 3.4 2.3 3.7 0 0.4 0.7 1.5 1.4 2.4 0.8 1 3.2 4.2 5.4 7 7.5 10.2 27.2 28.9 33.2 31.6 0.8 0.4 4.7 2.5 8.7 4.6 4 2.2 8.9 4.4 11 5.1 2.1 0.6 4.7 1.5 5.8 2 9.1 4.1 33.3 4.9 46.5 1.7 8.8 -2.1 18 -5.4 19.9 -7.1 0.9 -0.8 4.3 -2.8 7.6 -4.6 4.6 -2.4 6.8 -3 9.4 -2.6 4.7 0.7 7.3 3.9 7.3 8.7 -0.1 4.4 -3.5 16.5 -6.3 22.2 -1.1 2.2 -1.9 4.3 -1.9 4.8 0 1.7 -6.6 15.9 -10.4 22.7 -8.4 14.7 -31.2 39.2 -40.6 43.5 -0.8 0.4 -3.3 1.8 -5.5 3.2 -11.5 7 -26.3 12 -39 13.1 -6.8 0.6 -28.5 0.5 -29.6 -0.1 -0.3 -0.3 -2.9 -0.7 -5.5 -0.9 -9.9 -1 -22.1 -3.4 -34.9 -7 -20.5 -5.8 -27.1 -8.1 -33.7 -11.7 -1 -0.5 -2.4 -0.9 -3.3 -0.9 -1.9 0 -3.5 -3.1 -3.9 -7.8 -0.5 -4.5 -6.6 -23.6 -7.8 -24 -0.4 -0.2 -0.8 -0.7 -0.8 -1.2 0 -2.7 -8.2 -13.8 -15.1 -20.4 -4.4 -4.2 -8.2 -7.6 -8.4 -7.6 -0.3 0 -2.4 -1.2 -4.8 -2.7 -4.1 -2.7 -6.3 -3.7 -13.7 -6.3 -1.9 -0.7 -4.4 -1.6 -5.5 -2.1 -3.5 -1.3 -11.7 -2.3 -25.9 -3.2 -6.5 -0.4 -14.3 1.1 -17 3.2 -0.6 0.4 -2.9 1.4 -5.1 2.1 -4.5 1.4 -16.6 8.4 -23.4 13.6 -11.8 9 -25 33.6 -26.5 49.4 -0.2 1.4 -0.4 3.1 -0.4 3.7 -0.2 1.3 -7.6 5.3 -9.9 5.3 -0.7 0 -1.3 0.4 -1.3 0.8 0 0.5 -2.4 1.4 -5.3 2.1 -2.8 0.6 -6.5 1.8 -8.1 2.7 -1.7 0.8 -4.6 1.9 -6.5 2.4 -2 0.4 -8.3 2.2 -14 3.9 -9.6 2.9 -13.4 3.7 -20.1 4.6 -1.4 0.2 -2.7 0.4 -3 0.6 -0.5 0.2 -1.6 0.3 -11 1.3 -12.7 1.2 -15.9 1.3 -24 0.5z"/>
 </g>
</svg>